[{"question": "In what year did Nikola Tesla emigrate to the United States?", "start": 0, "end": 26},
  {"question": "Who licensed Tesla's induction motor?", "start": 0, "end": 5},
  {"question": "What other invention of Tesla's did Westinghouse license?", "start": 0, "end": 5}
]